2020-07-12 20:10:45.084 +06:30 [INF] Application started.
2020-07-12 20:11:34.073 +06:30 [INF] Value missing in transactionId :Invoice0000001, Column name:Status.
2020-07-12 20:11:34.976 +06:30 [INF] Value missing in transactionId :Invoice0000005, Column name:Status.
2020-07-12 20:11:35.553 +06:30 [INF] Value missing in transactionId :Invoice0000008, Column name:Status.
2020-07-12 20:22:00.885 +06:30 [INF] Application started.
2020-07-12 20:22:15.200 +06:30 [INF] Value missing in transactionId :Invoice0000001, Column name:Status.
2020-07-12 20:22:16.026 +06:30 [INF] Value missing in transactionId :Invoice0000005, Column name:Status.
2020-07-12 20:22:16.882 +06:30 [INF] Value missing in transactionId :Invoice0000008, Column name:Status.
2020-07-12 20:23:11.598 +06:30 [INF] Application started.
2020-07-12 20:23:22.517 +06:30 [INF] Value missing in transactionId :, Column name:TransactionID.
2020-07-12 20:23:28.265 +06:30 [INF] Value missing in transactionId :, Column name:Amount.
2020-07-12 20:23:31.386 +06:30 [INF] Value missing in transactionId :, Column name:CurrencyCode.
2020-07-12 20:23:56.635 +06:30 [INF] Value missing in transactionId :, Column name:TransactionDate.
2020-07-12 20:23:57.975 +06:30 [INF] Value missing in transactionId :, Column name:Status.
2020-07-12 20:25:44.737 +06:30 [ERR] String was not recognized as a valid DateTime.
2020-07-12 20:26:12.504 +06:30 [ERR] String was not recognized as a valid DateTime.
2020-07-12 20:28:38.038 +06:30 [INF] Application started.
2020-07-12 20:29:26.424 +06:30 [INF] Application started.
2020-07-12 20:33:31.188 +06:30 [INF] Application started.
2020-07-12 20:33:45.114 +06:30 [ERR] String was not recognized as a valid DateTime.
2020-07-12 20:38:21.607 +06:30 [INF] Application started.
2020-07-12 20:40:37.752 +06:30 [INF] Application started.
2020-07-12 20:41:06.868 +06:30 [ERR] String was not recognized as a valid DateTime.
2020-07-12 20:47:30.927 +06:30 [INF] Application started.
2020-07-12 20:49:54.542 +06:30 [INF] Application started.
2020-07-12 20:50:25.173 +06:30 [ERR] String was not recognized as a valid DateTime.
2020-07-12 20:55:28.755 +06:30 [INF] Application started.
2020-07-12 20:56:38.269 +06:30 [INF] Application started.
2020-07-12 20:57:02.114 +06:30 [ERR] String was not recognized as a valid DateTime.
2020-07-12 20:58:28.710 +06:30 [INF] Application started.
2020-07-12 20:59:59.244 +06:30 [INF] Application started.
2020-07-12 21:00:48.065 +06:30 [INF] processXMLFile
2020-07-12 21:00:58.347 +06:30 [ERR] String was not recognized as a valid DateTime.
2020-07-12 21:01:11.842 +06:30 [INF] processXMLFile
2020-07-12 21:08:56.727 +06:30 [INF] Application started.
2020-07-12 21:09:11.221 +06:30 [INF] processXMLFile
2020-07-12 21:13:22.424 +06:30 [INF] Application started.
2020-07-12 21:16:20.986 +06:30 [INF] Application started.
2020-07-12 21:17:16.676 +06:30 [ERR] An error occurred while updating the entries. See the inner exception for details.
2020-07-12 21:17:50.407 +06:30 [INF] processXMLFile
2020-07-12 21:19:10.559 +06:30 [INF] processXMLFile
2020-07-12 21:29:50.325 +06:30 [INF] Application started.
2020-07-12 21:31:29.623 +06:30 [INF] Application started.
2020-07-12 21:31:41.265 +06:30 [INF] File is null.
2020-07-12 21:33:03.835 +06:30 [ERR] An error occurred while updating the entries. See the inner exception for details.
2020-07-12 21:51:55.590 +06:30 [INF] Application started.
2020-07-12 21:52:15.301 +06:30 [INF] processXMLFile
2020-07-12 21:52:22.658 +06:30 [INF] Value missing in transactionId :Inv00004, Column name:Status.
2020-07-12 21:54:04.586 +06:30 [INF] Application started.
2020-07-12 21:54:20.012 +06:30 [INF] processXMLFile
2020-07-12 21:54:21.022 +06:30 [INF] Value missing in transactionId :Inv00004, Column name:Status.
2020-07-12 21:57:19.381 +06:30 [INF] Application started.
2020-07-12 21:57:34.596 +06:30 [INF] processXMLFile
2020-07-12 22:03:39.020 +06:30 [INF] Application started.
2020-07-12 22:04:36.018 +06:30 [INF] processXMLFile
2020-07-12 22:04:38.042 +06:30 [ERR] An error occurred while updating the entries. See the inner exception for details.
2020-07-12 22:04:56.708 +06:30 [INF] processXMLFile
2020-07-12 22:05:16.874 +06:30 [ERR] An error occurred while updating the entries. See the inner exception for details.
2020-07-12 22:05:34.181 +06:30 [INF] processXMLFile
2020-07-12 22:05:35.620 +06:30 [ERR] An error occurred while updating the entries. See the inner exception for details.
2020-07-12 22:05:45.975 +06:30 [INF] processXMLFile
2020-07-12 22:07:26.661 +06:30 [INF] Application started.
2020-07-12 22:07:40.024 +06:30 [INF] processXMLFile
2020-07-12 22:07:42.656 +06:30 [ERR] An error occurred while updating the entries. See the inner exception for details.
2020-07-12 22:08:27.048 +06:30 [INF] processXMLFile
2020-07-12 22:08:56.970 +06:30 [INF] processXMLFile
2020-07-12 22:08:57.703 +06:30 [INF] Value missing in transactionId :Inv00004, Column name:Status.
2020-07-12 22:09:32.090 +06:30 [INF] processXMLFile
2020-07-12 22:09:42.631 +06:30 [INF] Value missing in transactionId :Inv00004, Column name:Status.
2020-07-12 22:11:06.244 +06:30 [INF] Application started.
2020-07-12 22:11:29.463 +06:30 [INF] processXMLFile
2020-07-12 22:11:30.127 +06:30 [INF] Value missing in transactionId :Inv00004, Column name:Status.
2020-07-12 22:14:02.567 +06:30 [INF] Application started.
2020-07-12 22:14:18.978 +06:30 [INF] processXMLFile
2020-07-12 22:14:19.666 +06:30 [INF] Value missing in XML file, transactionId :Inv00004, Column name:Amount.
2020-07-12 22:26:23.970 +06:30 [INF] Application started.
2020-07-12 22:45:07.892 +06:30 [INF] Application started.
2020-07-12 23:15:08.809 +06:30 [INF] Application started.
2020-07-12 23:26:30.706 +06:30 [INF] Application started.
2020-07-12 23:34:48.157 +06:30 [INF] Application started.
2020-07-12 23:36:42.830 +06:30 [INF] Application started.
2020-07-12 23:50:17.727 +06:30 [INF] Application started.
