"Invoice0000004","1000.00","USD", "20/02/2019 12:33:16", "Approved"
"Invoice000003","300.00","USD","21/02/2019 02:04:59","Failed"
"Invoice000033","1500.00","MMK","20/02/2019 12:33:16", "Approved"
"Invoice000404","500.00","SGD","21/02/2019 02:04:59","Failed"
"Invoice0003004","500.00","SGD","21/02/2019 02:04:59","Failed"